…
##### 1c. What might these rows represent?

    It is possible that the missing rows represent that these flights didn't actually depart or arrive for various reasons. Maybe it's rescheduled or cancelled during flights and didn't land in the original destination (or crushed?). There is also the possibility that the data is just missing for these normal flights. 

## 2. Currently dep_time and sched_dep_time are convenient to look at, but hard to compute with because they are not really continuous numbers. Convert them to a more convenient representation of number of minutes since midnight.

``` r
flights %>%
  select(dep_time, sched_dep_time) %>%
  mutate(dep_time_minutes = (dep_time%/%100*60+dep_time%%100)%%1440,
         sched_dep_time_minutes = (sched_dep_time%/%100*60+sched_dep_time%%100)%% 1440) 
```

    ## # A tibble: 336,776 x 4
    ##    dep_time sched_dep_time dep_time_minutes sched_dep_time_minutes
    ##       <int>          <int>            <dbl>                  <dbl>
    ##  1      517            515              317                    315
    ##  2      533            529              333                    329
    ##  3      542            540              342                    340
    ##  4      544            545              344                    345
    ##  5      554            600              354                    360
    ##  6      554            558              354                    358
    ##  7      555            600              355                    360
    ##  8      557            600              357                    360
    ##  9      557            600              357                    360
    ## 10      558            600              358                    360
    ## # ... with 336,766 more rows
…
